{
  "lessons": [
    {
      "name": "name of lesson 1",
      "cards": [
        {
          "kanji": "kanji chacracter 1 of 1",
          "romaji": "romaji character 1 of 1",
          "meaning": "meaning character 1 of 1"
        },
        {
          "kanji": "kanji chacracter 2 of 1",
          "romaji": "romaji character 2 of 1",
          "meaning": "meaning character 2 of 1"
        }
      ]
    },
    {
      "name": "name of lesson 2",
      "cards": [
        {
          "kanji": "kanji chacracter 1 of 2",
          "romaji": "romaji character 1 of 2",
          "meaning": "meaning character 1 of 2"
        },
        {
          "kanji": "kanji chacracter 2 of 2",
          "romaji": "romaji character 2 of 2",
          "meaning": "meaning character 2 of 2"
        }
      ]
    },
    {
      "name": "name of lesson 3",
      "cards": [
        {
          "kanji": "kanji chacracter 1 of 3",
          "romaji": "romaji character 1 of 3",
          "meaning": "meaning character 1 of 3"
        },
        {
          "kanji": "kanji chacracter 2 of 3",
          "romaji": "romaji character 2 of 3",
          "meaning": "meaning character 2 of 3"
        }
      ]
    }
  ]
}